…
julia> glm_init() # To enable GLM fuctionality
```
This function will export all functions from `GLM` and related function in this package, including `anova`, `anova_lm`, `anova_glm`.
```
julia> using RDatasets, DataFrames

julia> iris = dataset("datasets", "iris")
150×5 DataFrame
 Row │ SepalLength  SepalWidth  PetalLength  PetalWidth  Species   
     │ Float64      Float64     Float64      Float64     Cat…      
─────┼─────────────────────────────────────────────────────────────
   1 │         5.1         3.5          1.4         0.2  setosa
   2 │         4.9         3.0          1.4         0.2  setosa
   3 │         4.7         3.2          1.3         0.2  setosa
  ⋮  │      ⋮           ⋮            ⋮           ⋮           ⋮
 149 │         6.2         3.4          5.4         2.3  virginica
 150 │         5.9         3.0          5.1         1.8  virginica
                                                   145 rows omitted
…
F-test: 4 models fitted on 150 observations
────────────────────────────────────────────────────────────────────
     DOF  ΔDOF       SSR      ΔSSR      R²     ΔR²        F*   p(>F)
────────────────────────────────────────────────────────────────────
[1]    2        102.1683            0.0000
[2]    3     1  100.7561   -1.4122  0.0138  0.0138    2.0744  0.1519
[3]    5     2   28.0037  -72.7524  0.7259  0.7121  189.6512  <1e-40
[4]    7     2   27.8465   -0.1572  0.7274  0.0015    0.4064  0.6668
────────────────────────────────────────────────────────────────────
```
In `anova`, the F value is calculated by dividing MSR(mean of ΔDeviance) with mean of RSS of saturated model, like `anova` in R programming language, while in `GLM.ftest`, the denominator is replaced by RSS of subsequant model.
### Generalized linear models 
```
julia> quine = dataset("MASS", "quine")
146×5 DataFrame
 Row │ Eth   Sex   Age   Lrn   Days  
     │ Cat…  Cat…  Cat…  Cat…  Int32 
─────┼───────────────────────────────
   1 │ A     M     F0    SL        2
   2 │ A     M     F0    SL       11
   3 │ A     M     F0    SL       14
  ⋮  │  ⋮     ⋮     ⋮     ⋮      ⋮
 145 │ N     F     F3    AL       22
 146 │ N     F     F3    AL       37
                     141 rows omitted
…
`anova` will automatically select test from f test or likelihood-ratio test depending on the type of distribution. For distribution of `Bernoulli()`, `Binomial()`, `Poisson()` that have fixed dispersion, likelihood-ratio test is preferred. For other distribution, F test is preferred.  
```
julia> mtcars = dataset("datasets", "mtcars")
32×12 DataFrame
 Row │ Model              MPG      Cyl    Disp     HP     DRat     WT       QSec     VS    AM     Gear   Carb  
     │ Cat…               Float64  Int64  Float64  Int64  Float64  Float64  Float64  Cat…  Int64  Int64  Int64 
─────┼─────────────────────────────────────────────────────────────────────────────────────────────────────────
   1 │ Mazda RX4             21.0      6    160.0    110     3.9     2.62     16.46  0         1      4      4
   2 │ Mazda RX4 Wag         21.0      6    160.0    110     3.9     2.875    17.02  0         1      4      4
   3 │ Datsun 710            22.8      4    108.0     93     3.85    2.32     18.61  1         1      4      1
  ⋮  │         ⋮             ⋮       ⋮       ⋮       ⋮       ⋮        ⋮        ⋮      ⋮      ⋮      ⋮      ⋮
  31 │ Maserati Bora         15.0      8    301.0    335     3.54    3.57     14.6   0         1      5      8
  32 │ Volvo 142E            21.4      4    121.0    109     4.11    2.78     18.6   1         1      4      2
                                                                                                27 rows omitted
```
…
We can also specify test by keword arguments `test` or putting test in the first argument.

### Linear mixed-effect model
The implementation of ANOVA for linear mixed-effect model is primarily based on `MixedModels`. The syntax is similar to above examples.   
Likewise, to enable `MixedModels` fuctionality: 
```
julia> mm_init()

julia> using RCall, DataFrames

julia> R"""data("anxiety", package = "datarium")"""; anxiety = stack(rcopy(R"anxiety"), [:t1, :t2, :t3], [:id, :group], variable_name = :time, value_name = :score); anxiety = combine(anxiety, Not(:time), :time => ByRow(x->parse(Int, replace(String(x), "t"=>""))) => :time)
135×4 DataFrame
 Row │ id    group  score    time  
     │ Cat…  Cat…   Float64  Int64 
─────┼─────────────────────────────
   1 │ 1     grp1      14.1      1
   2 │ 2     grp1      14.5      1
   3 │ 3     grp1      15.7      1
  ⋮  │  ⋮      ⋮       ⋮       ⋮
 134 │ 44    grp3      15.1      3
 135 │ 45    grp3      15.5      3
                   130 rows omitted
```
…
Table:
─────────────────────────────────────────────────────────────────────
   DOF  ΔDOF  Res.DOF     AIC     BIC  -2 logLik        χ²  Pr(>|χ²|)
─────────────────────────────────────────────────────────────────────
1    7            129  508.72  529.06     494.72
2    8     1      127  281.43  304.67     265.43  229.2935     <1e-51
3   13     5      122  290.79  328.56     264.79    0.6349     0.9864
─────────────────────────────────────────────────────────────────────
```
### Generalized linear mixed-effect model
Fit a linear mixed-effect model with a `GeneralizedLinearMixedModel` object. `glme` is an alias for `fit(GeneralizedLinearMixedModel, formula, data, args...)`.
```
julia> R"""data("toenail", package = "HSAUR2")"""; toenail = rcopy(R"toenail")
1908×5 DataFrame
  Row │ patientID  outcome             treatment    time       visit 
      │ Cat…       Cat…                Cat…         Float64    Int64 
──────┼──────────────────────────────────────────────────────────────
    1 │ 1          moderate or severe  terbinafine   0.0           1
    2 │ 1          moderate or severe  terbinafine   0.857143      2
    3 │ 1          moderate or severe  terbinafine   3.53571       3
  ⋮   │     ⋮              ⋮                ⋮           ⋮        ⋮
 1907 │ 383        none or mild        terbinafine   7.28571       5
 1908 │ 383        none or mild        terbinafine  10.7857        6
                                                    1903 rows omitted
…
